module axel-chemin.fr/gtg/v2

go 1.20

require (
	github.com/Masterminds/semver/v3 v3.1.1 // indirect
	github.com/Unleash/unleash-client-go/v3 v3.7.4 // indirect
	github.com/bwmarrin/discordgo v0.27.1 // indirect
	github.com/davecgh/go-spew v1.1.1 // indirect
	github.com/golang/snappy v0.0.1 // indirect
	github.com/gorilla/websocket v1.4.2 // indirect
	github.com/klauspost/compress v1.13.6 // indirect
	github.com/montanaflynn/stats v0.0.0-20171201202039-1bf9dbcd8cbe // indirect
	github.com/pmezard/go-difflib v1.0.0 // indirect
	github.com/stretchr/objx v0.1.1 // indirect
	github.com/stretchr/testify v1.2.2 // indirect
	github.com/twmb/murmur3 v1.1.5 // indirect
	github.com/xdg-go/pbkdf2 v1.0.0 // indirect
	github.com/xdg-go/scram v1.1.2 // indirect
	github.com/xdg-go/stringprep v1.0.4 // indirect
	github.com/youmark/pkcs8 v0.0.0-20181117223130-1be2e3e5546d // indirect
	go.mongodb.org/mongo-driver v1.12.0 // indirect
	golang.org/x/crypto v0.0.0-20220622213112-05595931fe9d // indirect
	golang.org/x/sync v0.0.0-20220722155255-886fb9371eb4 // indirect
	golang.org/x/sys v0.0.0-20220722155257-8c9f86f7a55f // indirect
	golang.org/x/text v0.7.0 // indirect
)
